{
    "current_page": 1,
    "data": [
      {
        "id": 1,
        "id_user": 1,
        "id_supervisore": 43,
        "userdata": {
          "id": 1,
          "nome": "Danny",
          "cognome": "Cattaneo",
          "email": "loretta57@yahoo.com",
          "email_verified_at": null,
          "cellulare": "+26 487 79 98 7539",
          "livello": 9,
          "id_tenant": 2,
          "created_at": "2023-03-10T14:59:31.000000Z",
          "updated_at": "2023-03-10T14:59:31.000000Z"
        },
        "superuser": {
          "id": 43,
          "nome": "Costanzo",
          "cognome": "Ferraro",
          "email": "ruth32@yahoo.it",
          "email_verified_at": null,
          "cellulare": "+05 8768 8444270",
          "livello": 8,
          "id_tenant": 3,
          "created_at": "2023-03-10T14:59:34.000000Z",
          "updated_at": "2023-03-10T14:59:34.000000Z"
        },
        "workerjob": [],
        "lastshift": null
      },
      {
        "id": 2,
        "id_user": 2,
        "id_supervisore": 47,
        "userdata": {
          "id": 2,
          "nome": "Tommaso",
          "cognome": "Marino",
          "email": "econti@yahoo.com",
          "email_verified_at": null,
          "cellulare": "030 188 9855",
          "livello": 9,
          "id_tenant": 5,
          "created_at": "2023-03-10T14:59:31.000000Z",
          "updated_at": "2023-03-10T14:59:31.000000Z"
        },
        "superuser": {
          "id": 47,
          "nome": "Rosolino",
          "cognome": "De rosa",
          "email": "briva@marino.it",
          "email_verified_at": null,
          "cellulare": "+88 6173 94290499",
          "livello": 8,
          "id_tenant": 5,
          "created_at": "2023-03-10T14:59:34.000000Z",
          "updated_at": "2023-03-10T14:59:34.000000Z"
        },
        "workerjob": [],
        "lastshift": null
      },
      {
        "id": 3,
        "id_user": 3,
        "id_supervisore": 73,
        "userdata": {
          "id": 3,
          "nome": "Neri",
          "cognome": "Fontana",
          "email": "giulietta.monti@bianco.com",
          "email_verified_at": null,
          "cellulare": "+39 045 713 295",
          "livello": 8,
          "id_tenant": 3,
          "created_at": "2023-03-10T14:59:31.000000Z",
          "updated_at": "2023-03-10T14:59:31.000000Z"
        },
        "superuser": {
          "id": 73,
          "nome": "Thea",
          "cognome": "Santoro",
          "email": "dangelo.sesto@bernardi.com",
          "email_verified_at": null,
          "cellulare": "+68 23 69443606",
          "livello": 8,
          "id_tenant": 5,
          "created_at": "2023-03-10T14:59:36.000000Z",
          "updated_at": "2023-03-10T14:59:36.000000Z"
        },
        "workerjob": [],
        "lastshift": null
      },
      {
        "id": 4,
        "id_user": 4,
        "id_supervisore": 35,
        "userdata": {
          "id": 4,
          "nome": "Harry",
          "cognome": "Caputo",
          "email": "rinaldi.sueellen@ferri.it",
          "email_verified_at": null,
          "cellulare": "+39 79 63323248",
          "livello": 1,
          "id_tenant": 1,
          "created_at": "2023-03-10T14:59:31.000000Z",
          "updated_at": "2023-03-10T14:59:31.000000Z"
        },
        "superuser": {
          "id": 35,
          "nome": "Nayade",
          "cognome": "Grassi",
          "email": "yvitali@yahoo.it",
          "email_verified_at": null,
          "cellulare": "+33 091 97638496",
          "livello": 8,
          "id_tenant": 4,
          "created_at": "2023-03-10T14:59:33.000000Z",
          "updated_at": "2023-03-10T14:59:33.000000Z"
        },
        "workerjob": [
          {
            "id": 2,
            "id_worker": 4,
            "id_job": 84,
            "id_competence": 84,
            "id_joblevel": 59,
            "id_enabling": 61,
            "created_at": "2023-03-10T14:59:49.000000Z",
            "updated_at": "2023-03-10T14:59:49.000000Z"
          }
        ],
        "lastshift": null
      },
      {
        "id": 5,
        "id_user": 5,
        "id_supervisore": 34,
        "userdata": {
          "id": 5,
          "nome": "Karim",
          "cognome": "Damico",
          "email": "omarino@yahoo.it",
          "email_verified_at": null,
          "cellulare": "+22 846 83510514",
          "livello": 9,
          "id_tenant": 4,
          "created_at": "2023-03-10T14:59:31.000000Z",
          "updated_at": "2023-03-10T14:59:31.000000Z"
        },
        "superuser": {
          "id": 34,
          "nome": "Laura",
          "cognome": "D'angelo",
          "email": "piras.sabino@neri.net",
          "email_verified_at": null,
          "cellulare": "+05 8545 9670154",
          "livello": 8,
          "id_tenant": 1,
          "created_at": "2023-03-10T14:59:33.000000Z",
          "updated_at": "2023-03-10T14:59:33.000000Z"
        },
        "workerjob": [],
        "lastshift": null
      }
    ],
    "first_page_url": "http://52.29.192.144/gextar_api/public/api/workers?page=1",
    "from": 1,
    "last_page": 20,
    "last_page_url": "http://52.29.192.144/gextar_api/public/api/workers?page=20",
    "links": [
      {
        "url": null,
        "label": "&laquo; Previous",
        "active": false
      },
      {
        "url": "http://52.29.192.144/gextar_api/public/api/workers?page=1",
        "label": "1",
        "active": true
      },
      {
        "url": "http://52.29.192.144/gextar_api/public/api/workers?page=2",
        "label": "2",
        "active": false
      },
      {
        "url": "http://52.29.192.144/gextar_api/public/api/workers?page=3",
        "label": "3",
        "active": false
      },
      {
        "url": "http://52.29.192.144/gextar_api/public/api/workers?page=4",
        "label": "4",
        "active": false
      },
      {
        "url": "http://52.29.192.144/gextar_api/public/api/workers?page=5",
        "label": "5",
        "active": false
      },
      {
        "url": "http://52.29.192.144/gextar_api/public/api/workers?page=6",
        "label": "6",
        "active": false
      },
      {
        "url": "http://52.29.192.144/gextar_api/public/api/workers?page=7",
        "label": "7",
        "active": false
      },
      {
        "url": "http://52.29.192.144/gextar_api/public/api/workers?page=8",
        "label": "8",
        "active": false
      },
      {
        "url": "http://52.29.192.144/gextar_api/public/api/workers?page=9",
        "label": "9",
        "active": false
      },
      {
        "url": "http://52.29.192.144/gextar_api/public/api/workers?page=10",
        "label": "10",
        "active": false
      },
      {
        "url": null,
        "label": "...",
        "active": false
      },
      {
        "url": "http://52.29.192.144/gextar_api/public/api/workers?page=19",
        "label": "19",
        "active": false
      },
      {
        "url": "http://52.29.192.144/gextar_api/public/api/workers?page=20",
        "label": "20",
        "active": false
      },
      {
        "url": "http://52.29.192.144/gextar_api/public/api/workers?page=2",
        "label": "Next &raquo;",
        "active": false
      }
    ],
    "next_page_url": "http://52.29.192.144/gextar_api/public/api/workers?page=2",
    "path": "http://52.29.192.144/gextar_api/public/api/workers",
    "per_page": "5",
    "prev_page_url": null,
    "to": 5,
    "total": 100
  }